%YAML 1.1
%TAG !u! tag:unity3d.com,2011:
--- !u!1001 &360900906727306328
PrefabInstance:
  m_ObjectHideFlags: 0
  serializedVersion: 2
  m_Modification:
    serializedVersion: 3
    m_TransformParent: {fileID: 0}
    m_Modifications:
    - target: {fileID: 1390595776523664763, guid: 39818daab78567a43811d502eccca6e2,
        type: 3}
      propertyPath: m_IsActive
      value: 0
      objectReference: {fileID: 0}
    - target: {fileID: 5282704310720479394, guid: 39818daab78567a43811d502eccca6e2,
        type: 3}
      propertyPath: m_IsActive
      value: 1
      objectReference: {fileID: 0}
    - target: {fileID: 6303065149984827514, guid: 39818daab78567a43811d502eccca6e2,
        type: 3}
      propertyPath: m_LocalPosition.x
      value: 0
      objectReference: {fileID: 0}
    - target: {fileID: 6303065149984827514, guid: 39818daab78567a43811d502eccca6e2,
        type: 3}
      propertyPath: m_LocalPosition.y
      value: 0
      objectReference: {fileID: 0}
    - target: {fileID: 6303065149984827514, guid: 39818daab78567a43811d502eccca6e2,
        type: 3}
      propertyPath: m_LocalPosition.z
      value: 0
      objectReference: {fileID: 0}
    - target: {fileID: 6303065149984827514, guid: 39818daab78567a43811d502eccca6e2,
        type: 3}
      propertyPath: m_LocalRotation.w
      value: 1
      objectReference: {fileID: 0}
    - target: {fileID: 6303065149984827514, guid: 39818daab78567a43811d502eccca6e2,
        type: 3}
      propertyPath: m_LocalRotation.x
      value: 0
      objectReference: {fileID: 0}
    - target: {fileID: 6303065149984827514, guid: 39818daab78567a43811d502eccca6e2,
        type: 3}
      propertyPath: m_LocalRotation.y
      value: 0
      objectReference: {fileID: 0}
    - target: {fileID: 6303065149984827514, guid: 39818daab78567a43811d502eccca6e2,
        type: 3}
      propertyPath: m_LocalRotation.z
      value: 0
      objectReference: {fileID: 0}
    - target: {fileID: 6303065149984827514, guid: 39818daab78567a43811d502eccca6e2,
        type: 3}
      propertyPath: m_LocalEulerAnglesHint.x
      value: 0
      objectReference: {fileID: 0}
    - target: {fileID: 6303065149984827514, guid: 39818daab78567a43811d502eccca6e2,
        type: 3}
      propertyPath: m_LocalEulerAnglesHint.y
      value: 0
      objectReference: {fileID: 0}
    - target: {fileID: 6303065149984827514, guid: 39818daab78567a43811d502eccca6e2,
        type: 3}
      propertyPath: m_LocalEulerAnglesHint.z
      value: 0
      objectReference: {fileID: 0}
    - target: {fileID: 7955696125166397264, guid: 39818daab78567a43811d502eccca6e2,
        type: 3}
      propertyPath: m_Name
      value: GroundButton_Blue
      objectReference: {fileID: 0}
    - target: {fileID: 8089281984070322788, guid: 39818daab78567a43811d502eccca6e2,
        type: 3}
      propertyPath: GlobalObjectIdHash
      value: 2537137110
      objectReference: {fileID: 0}
    m_RemovedComponents: []
    m_RemovedGameObjects: []
    m_AddedGameObjects:
    - targetCorrespondingSourceObject: {fileID: 322237415292072717, guid: 39818daab78567a43811d502eccca6e2,
        type: 3}
      insertIndex: -1
      addedObject: {fileID: 3275483925626435383}
    - targetCorrespondingSourceObject: {fileID: 1469604038365167261, guid: 39818daab78567a43811d502eccca6e2,
        type: 3}
      insertIndex: -1
      addedObject: {fileID: 3430080682112037084}
    m_AddedComponents: []
  m_SourcePrefab: {fileID: 100100000, guid: 39818daab78567a43811d502eccca6e2, type: 3}
--- !u!4 &106674955940923221 stripped
Transform:
  m_CorrespondingSourceObject: {fileID: 322237415292072717, guid: 39818daab78567a43811d502eccca6e2,
    type: 3}
  m_PrefabInstance: {fileID: 360900906727306328}
  m_PrefabAsset: {fileID: 0}
--- !u!4 &1254033007348861637 stripped
Transform:
  m_CorrespondingSourceObject: {fileID: 1469604038365167261, guid: 39818daab78567a43811d502eccca6e2,
    type: 3}
  m_PrefabInstance: {fileID: 360900906727306328}
  m_PrefabAsset: {fileID: 0}
--- !u!1001 &4921687388961769136
PrefabInstance:
  m_ObjectHideFlags: 0
  serializedVersion: 2
  m_Modification:
    serializedVersion: 3
    m_TransformParent: {fileID: 1254033007348861637}
    m_Modifications:
    - target: {fileID: 417298594947100109, guid: db62e823df6e8c44da98953e07ec897b,
        type: 3}
      propertyPath: m_Name
      value: SM_Floor_Button_Blue
      objectReference: {fileID: 0}
    - target: {fileID: 7770750805143041644, guid: db62e823df6e8c44da98953e07ec897b,
        type: 3}
      propertyPath: m_LocalPosition.x
      value: 0
      objectReference: {fileID: 0}
    - target: {fileID: 7770750805143041644, guid: db62e823df6e8c44da98953e07ec897b,
        type: 3}
      propertyPath: m_LocalPosition.y
      value: 0
      objectReference: {fileID: 0}
    - target: {fileID: 7770750805143041644, guid: db62e823df6e8c44da98953e07ec897b,
        type: 3}
      propertyPath: m_LocalPosition.z
      value: 0
      objectReference: {fileID: 0}
    - target: {fileID: 7770750805143041644, guid: db62e823df6e8c44da98953e07ec897b,
        type: 3}
      propertyPath: m_LocalRotation.w
      value: 1
      objectReference: {fileID: 0}
    - target: {fileID: 7770750805143041644, guid: db62e823df6e8c44da98953e07ec897b,
        type: 3}
      propertyPath: m_LocalRotation.x
      value: 0
      objectReference: {fileID: 0}
    - target: {fileID: 7770750805143041644, guid: db62e823df6e8c44da98953e07ec897b,
        type: 3}
      propertyPath: m_LocalRotation.y
      value: -0
      objectReference: {fileID: 0}
    - target: {fileID: 7770750805143041644, guid: db62e823df6e8c44da98953e07ec897b,
        type: 3}
      propertyPath: m_LocalRotation.z
      value: -0
      objectReference: {fileID: 0}
    - target: {fileID: 7770750805143041644, guid: db62e823df6e8c44da98953e07ec897b,
        type: 3}
      propertyPath: m_LocalEulerAnglesHint.x
      value: 0
      objectReference: {fileID: 0}
    - target: {fileID: 7770750805143041644, guid: db62e823df6e8c44da98953e07ec897b,
        type: 3}
      propertyPath: m_LocalEulerAnglesHint.y
      value: 0
      objectReference: {fileID: 0}
    - target: {fileID: 7770750805143041644, guid: db62e823df6e8c44da98953e07ec897b,
        type: 3}
      propertyPath: m_LocalEulerAnglesHint.z
      value: 0
      objectReference: {fileID: 0}
    m_RemovedComponents: []
    m_RemovedGameObjects: []
    m_AddedGameObjects: []
    m_AddedComponents: []
  m_SourcePrefab: {fileID: 100100000, guid: db62e823df6e8c44da98953e07ec897b, type: 3}
--- !u!4 &3430080682112037084 stripped
Transform:
  m_CorrespondingSourceObject: {fileID: 7770750805143041644, guid: db62e823df6e8c44da98953e07ec897b,
    type: 3}
  m_PrefabInstance: {fileID: 4921687388961769136}
  m_PrefabAsset: {fileID: 0}
--- !u!1001 &5090083429103862107
PrefabInstance:
  m_ObjectHideFlags: 0
  serializedVersion: 2
  m_Modification:
    serializedVersion: 3
    m_TransformParent: {fileID: 106674955940923221}
    m_Modifications:
    - target: {fileID: 417298594947100109, guid: db62e823df6e8c44da98953e07ec897b,
        type: 3}
      propertyPath: m_Name
      value: SM_Floor_Button_Blue
      objectReference: {fileID: 0}
    - target: {fileID: 2024541553334634695, guid: db62e823df6e8c44da98953e07ec897b,
        type: 3}
      propertyPath: m_LocalPosition.y
      value: -0.06
      objectReference: {fileID: 0}
    - target: {fileID: 7770750805143041644, guid: db62e823df6e8c44da98953e07ec897b,
        type: 3}
      propertyPath: m_LocalPosition.x
      value: 0
      objectReference: {fileID: 0}
    - target: {fileID: 7770750805143041644, guid: db62e823df6e8c44da98953e07ec897b,
        type: 3}
      propertyPath: m_LocalPosition.y
      value: 0
      objectReference: {fileID: 0}
    - target: {fileID: 7770750805143041644, guid: db62e823df6e8c44da98953e07ec897b,
        type: 3}
      propertyPath: m_LocalPosition.z
      value: 0
      objectReference: {fileID: 0}
    - target: {fileID: 7770750805143041644, guid: db62e823df6e8c44da98953e07ec897b,
        type: 3}
      propertyPath: m_LocalRotation.w
      value: 1
      objectReference: {fileID: 0}
    - target: {fileID: 7770750805143041644, guid: db62e823df6e8c44da98953e07ec897b,
        type: 3}
      propertyPath: m_LocalRotation.x
      value: 0
      objectReference: {fileID: 0}
    - target: {fileID: 7770750805143041644, guid: db62e823df6e8c44da98953e07ec897b,
        type: 3}
      propertyPath: m_LocalRotation.y
      value: -0
      objectReference: {fileID: 0}
    - target: {fileID: 7770750805143041644, guid: db62e823df6e8c44da98953e07ec897b,
        type: 3}
      propertyPath: m_LocalRotation.z
      value: -0
      objectReference: {fileID: 0}
    - target: {fileID: 7770750805143041644, guid: db62e823df6e8c44da98953e07ec897b,
        type: 3}
      propertyPath: m_LocalEulerAnglesHint.x
      value: 0
      objectReference: {fileID: 0}
    - target: {fileID: 7770750805143041644, guid: db62e823df6e8c44da98953e07ec897b,
        type: 3}
      propertyPath: m_LocalEulerAnglesHint.y
      value: 0
      objectReference: {fileID: 0}
    - target: {fileID: 7770750805143041644, guid: db62e823df6e8c44da98953e07ec897b,
        type: 3}
      propertyPath: m_LocalEulerAnglesHint.z
      value: 0
      objectReference: {fileID: 0}
    m_RemovedComponents: []
    m_RemovedGameObjects: []
    m_AddedGameObjects: []
    m_AddedComponents: []
  m_SourcePrefab: {fileID: 100100000, guid: db62e823df6e8c44da98953e07ec897b, type: 3}
--- !u!4 &3275483925626435383 stripped
Transform:
  m_CorrespondingSourceObject: {fileID: 7770750805143041644, guid: db62e823df6e8c44da98953e07ec897b,
    type: 3}
  m_PrefabInstance: {fileID: 5090083429103862107}
  m_PrefabAsset: {fileID: 0}
